{
  "${ModId}:Nomifactory": {
    "NAMES": [
      "Nomifactory",
      ""
    ],
    "TEXT": [
      "TODO: Change this text. It appears in the character selection screen as the character's description.",
      "NL TODO: Change this text. It appears before you strike the heart. For example: \"You ready your daggers...\"",
      "Navigating an unlit street, you come across several hooded figures in the midst of some dark ritual. As you approach, they turn to you in eerie unison. The tallest among them bares fanged teeth and extends a long, pale hand towards you. NL ~\"Join~ ~us~ ~TODO: This is the Vampires(?) event text. For example, Defect uses \"broken\"~ ~one,~ ~and~ ~feel~ ~the~ ~warmth~ ~of~ ~the~ ~Spire.\"~"
    ]
  }
}